CS2310 Course Project/Tic-Tac-Toe/Tic-Tac-Toe_verilog/carry_save.vcd
$date
	Sat Oct 05 23:08:51 2024
$end
$version
	Icarus Verilog
$end
$timescale
	1ns
$end
$scope module tb_carry_save $end
$var wire 8 ! res [7:0] $end
$var reg 4 " op1 [3:0] $end
$var reg 4 # op2 [3:0] $end
$var reg 8 $ temp [7:0] $end
$var integer 32 % i [31:0] $end
$var integer 32 & s [31:0] $end
$scope module dut $end
$var wire 4 ' op1 [3:0] $end
$var wire 4 ( op2 [3:0] $end
$var wire 1 ) zer $end
$var wire 1 * zero $end
$var wire 4 + sum2 [3:0] $end
$var wire 4 , sum1 [3:0] $end
$var wire 4 - row4 [3:0] $end
$var wire 4 . row3 [3:0] $end
$var wire 4 / row2 [3:0] $end
$var wire 4 0 row1 [3:0] $end
$var wire 8 1 res [7:0] $end
$var wire 4 2 car2 [3:0] $end
$var wire 4 3 car [3:0] $end
$scope module a1 $end
$var wire 4 4 a [3:0] $end
$var wire 1 5 b $end
$var wire 4 6 ans [3:0] $end
$upscope $end
$scope module a2 $end
$var wire 4 7 a [3:0] $end
$var wire 1 8 b $end
$var wire 4 9 ans [3:0] $end
$upscope $end
$scope module a3 $end
$var wire 4 : a [3:0] $end
$var wire 1 ; b $end
$var wire 4 < ans [3:0] $end
$upscope $end
$scope module a4 $end
$var wire 4 = a [3:0] $end
$var wire 1 > b $end
$var wire 4 ? ans [3:0] $end
$upscope $end
$scope module ee $end
$var wire 4 @ fir [3:0] $end
$var wire 4 A sec [3:0] $end
$var wire 4 B sum [3:0] $end
$var wire 4 C carr_out [3:0] $end
$var wire 4 D carr [3:0] $end
$scope module f1 $end
$var wire 1 E cin $end
$var wire 1 F cout $end
$var wire 1 G sum $end
$var wire 1 H x $end
$var wire 1 I y $end
$upscope $end
$scope module f2 $end
$var wire 1 J cin $end
$var wire 1 K cout $end
$var wire 1 L sum $end
$var wire 1 M x $end
$var wire 1 N y $end
$upscope $end
$scope module f3 $end
$var wire 1 O cin $end
$var wire 1 P cout $end
$var wire 1 Q sum $end
$var wire 1 R x $end
$var wire 1 S y $end
$upscope $end
$scope module f4 $end
$var wire 1 T cin $end
$var wire 1 U cout $end
$var wire 1 V sum $end
$var wire 1 W x $end
$var wire 1 X y $end
$upscope $end
$upscope $end
$scope module ff $end
$var wire 4 Y A [3:0] $end
$var wire 4 Z B [3:0] $end
$var wire 1 [ a1 $end
$var wire 1 \ a2 $end
$var wire 1 ] b1 $end
$var wire 1 ^ b2 $end
$var wire 1 _ b3 $end
$var wire 1 ) carry_in $end
$var wire 1 ` carry_out $end
$var wire 1 a e1 $end
$var wire 1 b e2 $end
$var wire 1 c e3 $end
$var wire 1 d e4 $end
$var wire 1 e u1 $end
$var wire 4 f sum [3:0] $end
$var wire 4 g p [3:0] $end
$var wire 4 h g [3:0] $end
$var wire 4 i car [3:0] $end
$upscope $end
$scope module ww $end
$var wire 4 j carr [3:0] $end
$var wire 4 k fir [3:0] $end
$var wire 4 l sec [3:0] $end
$var wire 4 m sum [3:0] $end
$var wire 4 n carr_out [3:0] $end
$scope module f1 $end
$var wire 1 o cin $end
$var wire 1 p cout $end
$var wire 1 q sum $end
$var wire 1 r x $end
$var wire 1 s y $end
$upscope $end
$scope module f2 $end
$var wire 1 t cin $end
$var wire 1 u cout $end
$var wire 1 v sum $end
$var wire 1 w x $end
$var wire 1 x y $end
$upscope $end
$scope module f3 $end
$var wire 1 y cin $end
$var wire 1 z cout $end
$var wire 1 { sum $end
$var wire 1 | x $end
$var wire 1 } y $end
$upscope $end
$scope module f4 $end
$var wire 1 ~ cin $end
$var wire 1 !" cout $end
$var wire 1 "" sum $end
$var wire 1 #" x $end
$var wire 1 $" y $end
$upscope $end
$upscope $end
$upscope $end
$upscope $end
$enddefinitions $end
$comment Show the parameter values. $end
$dumpall
$end
#0
$dumpvars
0$"
z#"
x""
0!"
0~
0}
0|
0{
0z
0y
0x
0w
0v
0u
0t
0s
0r
xq
0p
zo
b0 n
bx00x m
b0 l
bz000 k
b0z j
b0z i
b0 h
b0x0 g
b0xx f
0e
0d
0c
0b
0a
0`
0_
0^
0]
0\
0[
b0 Z
b0x0 Y
0X
0W
0V
0U
0T
0S
xR
xQ
0P
0O
0N
0M
0L
0K
0J
zI
0H
xG
0F
0E
b0 D
b0 C
b0x0x B
b0z A
b0x00 @
b0 ?
0>
b0 =
b0 <
0;
b0 :
b0 9
08
b0 7
b0 6
05
b0 4
b0 3
b0 2
b0xxxx0 1
b0 0
b0 /
b0 .
b0 -
bx00x ,
b0x0x +
0*
z)
b0 (
b0 '
b0 &
b0 %
bx $
b0 #
b0 "
b0xxxx0 !
$end
#10
15
b1 #
b1 (
b1 %
b0 $
#20
05
18
b10 #
b10 (
b10 %
#30
15
b11 #
b11 (
b11 %
#40
05
08
1;
b100 #
b100 (
b100 %
#50
15
b101 #
b101 (
b101 %
#60
05
18
b110 #
b110 (
b110 %
#70
15
b111 #
b111 (
b111 %
#80
05
08
0;
1>
b1000 #
b1000 (
b1000 %
#90
15
b1001 #
b1001 (
b1001 %
#100
05
18
b1010 #
b1010 (
b1010 %
#110
15
b1011 #
b1011 (
b1011 %
#120
05
08
1;
b1100 #
b1100 (
b1100 %
#130
15
b1101 #
b1101 (
b1101 %
#140
05
18
b1110 #
b1110 (
b1110 %
#150
15
b1111 #
b1111 (
b1111 %
#160
05
08
0;
0>
b0 #
b0 (
b1 "
b1 '
b1 4
b1 7
b1 :
b1 =
b1 &
b0 %
#170
b0xxxx1 !
b0xxxx1 1
b1 0
b1 6
15
b1 #
b1 (
b1 %
#180
b0xxx f
b0xxz i
xe
x[
b0xx g
b0x 2
b0x C
b0x Z
xF
xE
b0x 3
b0x D
b0x n
xp
b0xxxxx0 !
b0xxxxx0 1
1s
b0 0
b0 6
b1 /
b1 9
b1 l
05
18
b10 #
b10 (
b10 %
b1 $
#190
b0xxxxx1 !
b0xxxxx1 1
b1 0
b1 6
15
b11 #
b11 (
b11 %
b10 $
#200
0E
1H
b0 3
b0 D
b0 n
0p
b0x01 @
bx01x ,
bx01x m
1v
1t
b0xxxxx0 !
b0xxxxx0 1
0s
b1z j
b0 0
b0 6
b0 /
b0 9
b0 l
b1 .
b1 <
05
08
1;
b100 #
b100 (
b100 %
b11 $
#210
b0xxxxx1 !
b0xxxxx1 1
b1 0
b1 6
15
b101 #
b101 (
b101 %
b100 $
#220
xE
b0x 3
b0x D
b0x n
xp
b0xxxxx0 !
b0xxxxx0 1
1s
b0 0
b0 6
b1 /
b1 9
b1 l
05
18
b110 #
b110 (
b110 %
b101 $
#230
b0xxxxx1 !
b0xxxxx1 1
b1 0
b1 6
15
b111 #
b111 (
b111 %
b110 $
#240
b0x1 g
b0 2
b0 C
b0 Z
0F
0\
b0 h
0E
0H
b0 3
b0 D
b0 n
0p
b0x00 @
b0x1 Y
bx00x ,
bx00x m
0v
b0x1x +
b0x1x B
1L
0t
1N
b0xxxxx0 !
b0xxxxx0 1
0s
b0z j
b1z A
b0 0
b0 6
b0 /
b0 9
b0 l
b0 .
b0 <
b1 -
b1 ?
05
08
0;
1>
b1000 #
b1000 (
b1000 %
b111 $
#250
b0xxxxx1 !
b0xxxxx1 1
b1 0
b1 6
15
b1001 #
b1001 (
b1001 %
b1000 $
#260
x\
b0xx g
b0x h
b0x 2
b0x C
b0x Z
xF
xE
b0x 3
b0x D
b0x n
xp
b0xxxxx0 !
b0xxxxx0 1
1s
b0 0
b0 6
b1 /
b1 9
b1 l
05
18
b1010 #
b1010 (
b1010 %
b1001 $
#270
b0xxxxx1 !
b0xxxxx1 1
b1 0
b1 6
15
b1011 #
b1011 (
b1011 %
b1010 $
#280
0E
1H
b0 3
b0 D
b0 n
0p
b0x01 @
bx01x ,
bx01x m
1v
1t
b0xxxxx0 !
b0xxxxx0 1
0s
b1z j
b0 0
b0 6
b0 /
b0 9
b0 l
b1 .
b1 <
05
08
1;
b1100 #
b1100 (
b1100 %
b1011 $
#290
b0xxxxx1 !
b0xxxxx1 1
b1 0
b1 6
15
b1101 #
b1101 (
b1101 %
b1100 $
#300
xE
b0x 3
b0x D
b0x n
xp
b0xxxxx0 !
b0xxxxx0 1
1s
b0 0
b0 6
b1 /
b1 9
b1 l
05
18
b1110 #
b1110 (
b1110 %
b1101 $
#310
b0xxxxx1 !
b0xxxxx1 1
b1 0
b1 6
15
b1111 #
b1111 (
b1111 %
b1110 $
#320
b0xx f
b0z i
0e
0[
b0x0 g
b0 2
b0 C
b0 Z
0F
0\
b0 h
0E
0H
b0 3
b0 D
b0 n
0p
b0x00 @
b0x0 Y
bx00x ,
bx00x m
0v
b0x0x +
b0x0x B
0L
0t
0N
b0xxxx0 !
b0xxxx0 1
0s
b0z j
b0z A
b0 0
b0 6
b0 /
b0 9
b0 l
b0 .
b0 <
b0 -
b0 ?
05
08
0;
0>
b0 #
b0 (
b10 "
b10 '
b10 4
b10 7
b10 :
b10 =
b10 &
b0 %
b1111 $
#330
b0xxxxx0 !
b0xxxxx0 1
b0xxx f
b0xxz i
xe
x[
b0xx g
b0x 2
b0x C
b0x Z
xF
xE
b0x 3
b0x D
b0x n
xp
1r
bz001 k
b10 0
b10 6
15
b1 #
b1 (
b1 %
b0 $
#340
0E
b0 3
b0 D
b0 n
0p
1H
b0x01 @
0r
bx01x ,
bx01x m
1v
bz000 k
1x
b0 0
b0 6
b10 /
b10 9
b10 l
05
18
b10 #
b10 (
b10 %
b10 $
#350
xE
b0x 3
b0x D
b0x n
xp
1r
bz001 k
b10 0
b10 6
15
b11 #
b11 (
b11 %
b100 $
#360
b0x1 g
0\
b0 2
b0 C
b0 Z
0F
b0 h
b0x1 Y
0E
b0x1x +
b0x1x B
1L
b0 3
b0 D
b0 n
0p
0H
1M
b0x10 @
1{
0r
bx10x ,
bx10x m
0v
1y
bz000 k
0x
b10z j
b0 0
b0 6
b0 /
b0 9
b0 l
b10 .
b10 <
05
08
1;
b100 #
b100 (
b100 %
b110 $
#370
x\
b0xx g
b0x h
b0x 2
b0x C
b0x Z
xF
xE
b0x 3
b0x D
b0x n
xp
1r
bz001 k
b10 0
b10 6
15
b101 #
b101 (
b101 %
b1000 $
#380
0E
b0 3
b0 D
b0 n
0p
1H
b0x11 @
0r
bx11x ,
bx11x m
1v
bz000 k
1x
b0 0
b0 6
b10 /
b10 9
b10 l
05
18
b110 #
b110 (
b110 %
b1010 $
#390
xE
b0x 3
b0x D
b0x n
xp
1r
bz001 k
b10 0
b10 6
15
b111 #
b111 (
b111 %
b1100 $
#400
0e
0[
b0xxxxx0 !
b0xxxxx0 1
b0xxx f
0\
b0z i
0]
0^
0F
b0 h
b0xx0 g
b0x0 Y
0E
b0x0x +
b0x0x B
0L
b0x00 2
b0x00 C
b0x00 Z
xP
b0 3
b0 D
b0 n
0p
0H
0M
b0x00 @
0{
0r
bx00x ,
bx00x m
0v
0y
1S
bz000 k
0x
b0z j
b10z A
b0 0
b0 6
b0 /
b0 9
b0 l
b0 .
b0 <
b10 -
b10 ?
05
08
0;
1>
b1000 #
b1000 (
b1000 %
b1110 $
#410
b0xxxxxx0 !
b0xxxxxx0 1
bx f
bxz i
xe
x[
x]
b0xxx g
b0x0x 2
b0x0x C
b0x0x Z
xF
xE
b0x 3
b0x D
b0x n
xp
1r
bz001 k
b10 0
b10 6
15
b1001 #
b1001 (
b1001 %
b10000 $
#420
0E
b0 3
b0 D
b0 n
0p
1H
b0x01 @
0r
bx01x ,
bx01x m
1v
bz000 k
1x
b0 0
b0 6
b10 /
b10 9
b10 l
05
18
b1010 #
b1010 (
b1010 %
b10010 $
#430
xE
b0x 3
b0x D
b0x n
xp
1r
bz001 k
b10 0
b10 6
15
b1011 #
b1011 (
b1011 %
b10100 $
#440
b0xx1 g
0\
0^
b0x00 2
b0x00 C
b0x00 Z
0F
b0 h
b0x1 Y
0E
b0x1x +
b0x1x B
1L
b0 3
b0 D
b0 n
0p
0H
1M
b0x10 @
1{
0r
bx10x ,
bx10x m
0v
1y
bz000 k
0x
b10z j
b0 0
b0 6
b0 /
b0 9
b0 l
b10 .
b10 <
05
08
1;
b1100 #
b1100 (
b1100 %
b10110 $
#450
x\
x^
b0xxx g
b0x h
b0x0x 2
b0x0x C
b0x0x Z
xF
xE
b0x 3
b0x D
b0x n
xp
1r
bz001 k
b10 0
b10 6
15
b1101 #
b1101 (
b1101 %
b11000 $
#460
0E
b0 3
b0 D
b0 n
0p
1H
b0x11 @
0r
bx11x ,
bx11x m
1v
bz000 k
1x
b0 0
b0 6
b10 /
b10 9
b10 l
05
18
b1110 #
b1110 (
b1110 %
b11010 $
#470
xE
b0x 3
b0x D
b0x n
xp
1r
bz001 k
b10 0
b10 6
15
b1111 #
b1111 (
b1111 %
b11100 $
#480
0e
0[
b0xxxx0 !
b0xxxx0 1
b0xx f
0\
b0z i
0]
0^
0F
b0 h
b0x0 g
b0x0 Y
0E
b0x0x +
b0x0x B
0L
b0 2
b0 C
b0 Z
0P
b0 3
b0 D
b0 n
0p
0H
0M
b0x00 @
0{
0r
bx00x ,
bx00x m
0v
0y
0S
bz000 k
0x
b0z j
b0z A
b0 0
b0 6
b0 /
b0 9
b0 l
b0 .
b0 <
b0 -
b0 ?
05
08
0;
0>
b0 #
b0 (
b11 "
b11 '
b11 4
b11 7
b11 :
b11 =
b11 &
b0 %
b11110 $
#490
b0xxx f
b0xxz i
xe
x[
b0xx g
b0x 2
b0x C
b0x Z
xF
xE
b0x 3
b0x D
b0x n
xp
1r
b0xxxxx1 !
b0xxxxx1 1
bz001 k
b11 0
b11 6
15
b1 #
b1 (
b1 %
b0 $
#500
b0xx g
b0x 2
b0x C
b0x Z
xF
xE
b0x 3
b0x D
b0x n
xp
1H
b0x01 @
0r
bx01x ,
bx01x m
1v
b0xxxxx0 !
b0xxxxx0 1
bz000 k
1s
1x
b0 0
b0 6
b11 /
b11 9
b11 l
05
18
b10 #
b10 (
b10 %
b11 $
#510
b0x1 g
b1 2
b1 C
b1 Z
1F
1E
b1 3
b1 D
b1 n
1p
1r
b0xxxxx1 !
b0xxxxx1 1
bz001 k
b11 0
b11 6
15
b11 #
b11 (
b11 %
b110 $
#520
x\
b0xx g
b0x h
b0x 2
b0x C
b0x Z
xF
b0x1 Y
b0x1x +
b0x1x B
1L
0E
1M
b0 3
b0 D
b0 n
0p
b0x11 @
bx11x ,
bx11x m
1{
0r
1t
1y
b0xxxxx0 !
b0xxxxx0 1
bz000 k
0s
0x
b11z j
b0 0
b0 6
b0 /
b0 9
b0 l
b11 .
b11 <
05
08
1;
b100 #
b100 (
b100 %
b1001 $
#530
xE
b0x 3
b0x D
b0x n
xp
1r
b0xxxxx1 !
b0xxxxx1 1
bz001 k
b11 0
b11 6
15
b101 #
b101 (
b101 %
b1100 $
#540
0\
b0x0 h
b0x0 Y
b1x 2
b1x C
b1x Z
1K
b0x0x +
b0x0x B
0L
xE
1J
xp
0H
b1x 3
b1x D
b1x n
1u
b0x10 @
0r
bx10x ,
bx10x m
0v
b0xxxxx0 !
b0xxxxx0 1
bz000 k
1s
1x
b0 0
b0 6
b11 /
b11 9
b11 l
05
18
b110 #
b110 (
b110 %
b1111 $
#550
1E
b11 3
b11 D
b11 n
1p
1r
b0xxxxx1 !
b0xxxxx1 1
bz001 k
b11 0
b11 6
15
b111 #
b111 (
b111 %
b10010 $
#560
bx f
bxz i
x]
0_
0F
0K
0\
0^
b0xx1 g
b0 h
0E
0J
0M
b0x00 2
b0x00 C
b0x00 Z
xP
0p
b0 3
b0 D
b0 n
0u
b0x00 @
b0x1 Y
bx00x ,
bx00x m
0{
b0x1x +
b0x1x B
1L
0r
0t
0y
1N
1S
b0xxxxxx0 !
b0xxxxxx0 1
bz000 k
0s
0x
b0z j
b11z A
b0 0
b0 6
b0 /
b0 9
b0 l
b0 .
b0 <
b11 -
b11 ?
05
08
0;
1>
b1000 #
b1000 (
b1000 %
b10101 $
#570
x\
x^
b0xxx g
b0x h
b0x0x 2
b0x0x C
b0x0x Z
xF
xE
b0x 3
b0x D
b0x n
xp
1r
b0xxxxxx1 !
b0xxxxxx1 1
bz001 k
b11 0
b11 6
15
b1001 #
b1001 (
b1001 %
b11000 $
#580
xe
x[
x]
bxz i
b0xxx g
b0x h
b0x0x 2
b0x0x C
b0x0x Z
xF
xE
b0x 3
b0x D
b0x n
xp
1H
b0x01 @
0r
bx01x ,
bx01x m
1v
b0xxxxxx0 !
b0xxxxxx0 1
bz000 k
1s
1x
b0 0
b0 6
b11 /
b11 9
b11 l
05
18
b1010 #
b1010 (
b1010 %
b11011 $
#590
0e
0[
0]
bx1z i
b0xx0 g
b1 h
b0x01 2
b0x01 C
b0x01 Z
1F
1E
b1 3
b1 D
b1 n
1p
1r
b0xxxxxx1 !
b0xxxxxx1 1
bz001 k
b11 0
b11 6
15
b1011 #
b1011 (
b1011 %
b11110 $
#600
x_
xe
x[
x]
bxz i
0\
0^
b0xxx g
b0x0 h
1K
b0x1x 2
b0x1x C
b0x1x Z
xF
b0x0 Y
b0x0x +
b0x0x B
0L
0E
1M
b0 3
b0 D
b0 n
0p
b0x11 @
bx11x ,
bx11x m
1{
0r
1t
1y
b0xxxxxx0 !
b0xxxxxx0 1
bz000 k
0s
0x
b11z j
b0 0
b0 6
b0 /
b0 9
b0 l
b11 .
b11 <
05
08
1;
b1100 #
b1100 (
b1100 %
b100001 $
#610
xE
b0x 3
b0x D
b0x n
xp
1r
b0xxxxxx1 !
b0xxxxxx1 1
bz001 k
b11 0
b11 6
15
b1101 #
b1101 (
b1101 %
b100100 $
#620
x\
x^
b0xx h
b0x1 Y
b0x1x +
b0x1x B
1L
xE
1J
xp
0H
b1x 3
b1x D
b1x n
1u
b0x10 @
0r
bx10x ,
bx10x m
0v
b0xxxxxx0 !
b0xxxxxx0 1
bz000 k
1s
1x
b0 0
b0 6
b11 /
b11 9
b11 l
05
18
b1110 #
b1110 (
b1110 %
b100111 $
#630
1E
b11 3
b11 D
b11 n
1p
1r
b0xxxxxx1 !
b0xxxxxx1 1
bz001 k
b11 0
b11 6
15
b1111 #
b1111 (
b1111 %
b101010 $
#640
0e
0[
b0xx f
b0z i
0]
0_
0F
0\
0^
0K
b0x0 g
b0 h
0E
0J
0M
b0 2
b0 C
b0 Z
0P
0p
b0 3
b0 D
b0 n
0u
b0x00 @
b0x0 Y
bx00x ,
bx00x m
0{
b0x0x +
b0x0x B
0L
0r
0t
0y
0N
0S
b0xxxx0 !
b0xxxx0 1
bz000 k
0s
0x
b0z j
b0z A
b0 0
b0 6
b0 /
b0 9
b0 l
b0 .
b0 <
b0 -
b0 ?
05
08
0;
0>
b0 #
b0 (
b100 "
b100 '
b100 4
b100 7
b100 :
b100 =
b100 &
b0 %
b101101 $
#650
b0xxxxx0 !
b0xxxxx0 1
b0xxx f
b0xxz i
xe
x[
b0xx g
b0x 2
b0x C
b0x Z
xF
1H
b0x01 @
bx01x ,
bx01x m
1v
1w
bz010 k
b100 0
b100 6
15
b1 #
b1 (
b1 %
b0 $
#660
b0x1 g
0\
b0 2
b0 C
b0 Z
0F
b0 h
b0x1 Y
0H
b0x1x +
b0x1x B
1L
1M
0v
b0x10 @
0w
bx10x ,
bx10x m
1{
bz000 k
1}
b0 0
b0 6
b100 /
b100 9
b100 l
05
18
b10 #
b10 (
b10 %
b100 $
#670
x\
b0xx g
b0x h
b0x 2
b0x C
b0x Z
xF
1H
b0x11 @
bx11x ,
bx11x m
1v
1w
bz010 k
b100 0
b100 6
15
b11 #
b11 (
b11 %
b1000 $
#680
b0xxxxx0 !
b0xxxxx0 1
b0xxx f
0e
0[
b0z i
0]
0\
b0 2
b0 C
b0 Z
0F
b0xx0 g
b0 h
b0xx0 Y
xV
0H
bx0x +
bx0x B
0L
xT
0M
bx000 3
bx000 D
bx000 n
x!"
0v
b0x00 @
0w
bx00x ,
bx00x m
0{
1~
bz000 k
0}
b100z j
b0 0
b0 6
b0 /
b0 9
b0 l
b100 .
b100 <
05
08
1;
b100 #
b100 (
b100 %
b1100 $
#690
b0xxxxxx0 !
b0xxxxxx0 1
bx f
bxz i
xe
x[
x]
b0xxx g
b0x 2
b0x C
b0x Z
xF
1H
b0x01 @
bx01x ,
bx01x m
1v
1w
bz010 k
b100 0
b100 6
15
b101 #
b101 (
b101 %
b10000 $
#700
b0xx1 g
0\
0^
b0 2
b0 C
b0 Z
0F
b0 h
b0xx1 Y
0H
bx1x +
bx1x B
1L
1M
0v
b0x10 @
0w
bx10x ,
bx10x m
1{
bz000 k
1}
b0 0
b0 6
b100 /
b100 9
b100 l
05
18
b110 #
b110 (
b110 %
b10100 $
#710
x\
x^
b0xxx g
b0x h
b0x 2
b0x C
b0x Z
xF
1H
b0x11 @
bx11x ,
bx11x m
1v
1w
bz010 k
b100 0
b100 6
15
b111 #
b111 (
b111 %
b11000 $
#720
b1xx f
b0z i
0e
0[
0]
b1xxxx0 !
b1xxxx0 1
0`
0\
0^
0a
0b
0F
b0 h
b1x0 g
b1x0 Y
1V
0H
b1x0x +
b1x0x B
0L
0T
b0 2
b0 C
b0 Z
0U
0M
b0 3
b0 D
b0 n
0!"
0v
b0x00 @
0w
bx00x ,
bx00x m
0{
0~
1X
bz000 k
0}
b0z j
b100z A
b0 0
b0 6
b0 /
b0 9
b0 l
b0 .
b0 <
b100 -
b100 ?
05
08
0;
1>
b1000 #
b1000 (
b1000 %
b11100 $
#730
b0xxxxxx0 !
b0xxxxxx0 1
bx f
bxz i
xe
x[
x]
b1xx g
b0x 2
b0x C
b0x Z
xF
1H
b0x01 @
bx01x ,
bx01x m
1v
1w
bz010 k
b100 0
b100 6
15
b1001 #
b1001 (
b1001 %
b100000 $
#740
b1x1 g
0\
0^
b0 2
b0 C
b0 Z
0F
b0 h
b1x1 Y
0H
b1x1x +
b1x1x B
1L
1M
0v
b0x10 @
0w
bx10x ,
bx10x m
1{
bz000 k
1}
b0 0
b0 6
b100 /
b100 9
b100 l
05
18
b1010 #
b1010 (
b1010 %
b100100 $
#750
x\
x^
b1xx g
b0x h
b0x 2
b0x C
b0x Z
xF
1H
b0x11 @
bx11x ,
bx11x m
1v
1w
bz010 k
b100 0
b100 6
15
b1011 #
b1011 (
b1011 %
b101000 $
#760
b0z i
0e
0[
0]
0\
0^
0F
bx0 g
b0 h
bx000 2
bx000 C
bx000 Z
xU
b0xx0 Y
xV
0H
bx0x +
bx0x B
0L
xT
0M
bx000 3
bx000 D
bx000 n
x!"
0v
b0x00 @
0w
bx00x ,
bx00x m
0{
1~
bz000 k
0}
b100z j
b0 0
b0 6
b0 /
b0 9
b0 l
b100 .
b100 <
05
08
1;
b1100 #
b1100 (
b1100 %
b101100 $
#770
bx0 !
bx0 1
x`
bxz i
xa
xe
x[
x]
bx g
bx00x 2
bx00x C
bx00x Z
xF
1H
b0x01 @
bx01x ,
bx01x m
1v
1w
bz010 k
b100 0
b100 6
15
b1101 #
b1101 (
b1101 %
b110000 $
#780
bx1 g
0\
0^
0b
bx000 2
bx000 C
bx000 Z
0F
b0 h
b0xx1 Y
0H
bx1x +
bx1x B
1L
1M
0v
b0x10 @
0w
bx10x ,
bx10x m
1{
bz000 k
1}
b0 0
b0 6
b100 /
b100 9
b100 l
05
18
b1110 #
b1110 (
b1110 %
b110100 $
#790
x\
x^
xb
bx g
b0x h
bx00x 2
bx00x C
bx00x Z
xF
1H
b0x11 @
bx11x ,
bx11x m
1v
1w
bz010 k
b100 0
b100 6
15
b1111 #
b1111 (
b1111 %
b111000 $
#800
b0xx f
0e
0[
b0xxxx0 !
b0xxxx0 1
0`
b0z i
0]
0\
0^
0a
0b
0F
b0 h
b0x0 g
b0x0 Y
0V
0H
b0x0x +
b0x0x B
0L
0T
b0 2
b0 C
b0 Z
0U
0M
b0 3
b0 D
b0 n
0!"
0v
b0x00 @
0w
bx00x ,
bx00x m
0{
0~
0X
bz000 k
0}
b0z j
b0z A
b0 0
b0 6
b0 /
b0 9
b0 l
b0 .
b0 <
b0 -
b0 ?
05
08
0;
0>
b0 #
b0 (
b101 "
b101 '
b101 4
b101 7
b101 :
b101 =
b101 &
b0 %
b111100 $
#810
b0xxx f
b0xxz i
xe
x[
b0xx g
b0x 2
b0x C
b0x Z
xF
1H
b0x01 @
bx01x ,
bx01x m
1v
1w
b0xxxxx1 !
b0xxxxx1 1
bz010 k
b101 0
b101 6
15
b1 #
b1 (
b1 %
b0 $
#820
x\
b0x h
b0x1 Y
0H
xE
b0x1x +
b0x1x B
1L
b0x 3
b0x D
b0x n
xp
1M
0v
b0x10 @
0w
bx10x ,
bx10x m
1{
b0xxxxx0 !
b0xxxxx0 1
bz000 k
1s
1}
b0 0
b0 6
b101 /
b101 9
b101 l
05
18
b10 #
b10 (
b10 %
b101 $
#830
1H
b0x11 @
bx11x ,
bx11x m
1v
1w
b0xxxxx1 !
b0xxxxx1 1
bz010 k
b101 0
b101 6
15
b11 #
b11 (
b11 %
b1010 $
#840
bx f
bxz i
x]
0\
b0xxx g
b0 h
b0xx0 Y
xV
0E
bx0x +
bx0x B
0L
xT
0p
0M
bx000 3
bx000 D
bx000 n
x!"
b0x01 @
0w
bx01x ,
bx01x m
0{
1t
1~
b0xxxxxx0 !
b0xxxxxx0 1
bz000 k
0s
0}
b101z j
b0 0
b0 6
b0 /
b0 9
b0 l
b101 .
b101 <
05
08
1;
b100 #
b100 (
b100 %
b1111 $
#850
0\
0^
b0xx1 g
b0 h
b0 2
b0 C
b0 Z
0F
b0xx1 Y
bx1x +
bx1x B
1L
0H
1J
b0x00 @
bx010 3
bx010 D
bx010 n
1u
bx00x ,
bx00x m
0v
1w
b0xxxxxx1 !
b0xxxxxx1 1
bz010 k
b101 0
b101 6
15
b101 #
b101 (
b101 %
b10100 $
#860
x\
x^
bxz i
xe
x[
x]
0_
b0xxx g
b0x h
xF
b0xx1 Y
b0x 2
b0x C
b0x Z
0K
1H
0J
xE
bx1x +
bx1x B
1L
0u
bx00x 3
bx00x D
bx00x n
xp
1M
1v
b0x11 @
0w
bx11x ,
bx11x m
1{
b0xxxxxx0 !
b0xxxxxx0 1
bz000 k
1s
1}
b0 0
b0 6
b101 /
b101 9
b101 l
05
18
b110 #
b110 (
b110 %
b11001 $
#870
0\
0^
x_
b0x0 h
b0xx0 Y
b1x 2
b1x C
b1x Z
1K
bx0x +
bx0x B
0L
0H
1J
b0x10 @
bx01x 3
bx01x D
bx01x n
1u
bx10x ,
bx10x m
0v
1w
b0xxxxxx1 !
b0xxxxxx1 1
bz010 k
b101 0
b101 6
15
b111 #
b111 (
b111 %
b11110 $
#880
0_
0`
0a
0c
0F
0\
0^
0b
0K
b1x1 g
1V
b0 h
0E
0J
0T
b0 2
b0 C
b0 Z
0U
0p
0M
0u
b0 3
b0 D
b0 n
0!"
b1x1 Y
b0x00 @
b1x1x +
b1x1x B
1L
0w
bx00x ,
bx00x m
0{
0t
0~
1N
1X
b0xxxxxx0 !
b0xxxxxx0 1
bz000 k
0s
0}
b0z j
b101z A
b0 0
b0 6
b0 /
b0 9
b0 l
b0 .
b0 <
b101 -
b101 ?
05
08
0;
1>
b1000 #
b1000 (
b1000 %
b100011 $
#890
x\
x^
b1xx g
b0x h
b0x 2
b0x C
b0x Z
xF
1H
b0x01 @
bx01x ,
bx01x m
1v
1w
b0xxxxxx1 !
b0xxxxxx1 1
bz010 k
b101 0
b101 6
15
b1001 #
b1001 (
b1001 %
b101000 $
#900
x_
0\
0^
b0x0 h
b1x 2
b1x C
b1x Z
1K
b1x0 Y
0H
xE
b1x0x +
b1x0x B
0L
b0x 3
b0x D
b0x n
xp
1M
0v
b0x10 @
0w
bx10x ,
bx10x m
1{
b0xxxxxx0 !
b0xxxxxx0 1
bz000 k
1s
1}
b0 0
b0 6
b101 /
b101 9
b101 l
05
18
b1010 #
b1010 (
b1010 %
b101101 $
#910
1H
b0x11 @
bx11x ,
bx11x m
1v
1w
b0xxxxxx1 !
b0xxxxxx1 1
bz010 k
b101 0
b101 6
15
b1011 #
b1011 (
b1011 %
b110010 $
#920
x`
xa
xb
0_
x\
x^
bx g
b0x h
xU
bx00x 2
bx00x C
bx00x Z
0K
b0xx1 Y
xV
0E
bx1x +
bx1x B
1L
xT
0p
0M
bx000 3
bx000 D
bx000 n
x!"
b0x01 @
0w
bx01x ,
bx01x m
0{
1t
1~
bx0 !
bx0 1
bz000 k
0s
0}
b101z j
b0 0
b0 6
b0 /
b0 9
b0 l
b101 .
b101 <
05
08
1;
b1100 #
b1100 (
b1100 %
b110111 $
#930
bx0z i
0a
0e
0[
0]
x_
xc
0\
0^
0b
bx0 g
b0x0 h
0F
bx010 2
bx010 C
bx010 Z
1K
b0xx0 Y
bx0x +
bx0x B
0L
0H
1J
b0x00 @
bx010 3
bx010 D
bx010 n
1u
bx00x ,
bx00x m
0v
1w
bx1 !
bx1 1
bz010 k
b101 0
b101 6
15
b1101 #
b1101 (
b1101 %
b111100 $
#940
bxz i
xa
xe
x[
x]
bx g
bx01x 2
bx01x C
bx01x Z
xF
b0xx0 Y
1H
0J
xE
bx0x +
bx0x B
0L
0u
bx00x 3
bx00x D
bx00x n
xp
1M
1v
b0x11 @
0w
bx11x ,
bx11x m
1{
bx0 !
bx0 1
bz000 k
1s
1}
b0 0
b0 6
b101 /
b101 9
b101 l
05
18
b1110 #
b1110 (
b1110 %
b1000001 $
#950
x\
x^
xb
b0xx h
b0xx1 Y
bx1x +
bx1x B
1L
0H
1J
b0x10 @
bx01x 3
bx01x D
bx01x n
1u
bx10x ,
bx10x m
0v
1w
bx1 !
bx1 1
bz010 k
b101 0
b101 6
15
b1111 #
b1111 (
b1111 %
b1000110 $
